\select@language {english}
\beamer@sectionintoc {1}{What is machine learning?}{3}{0}{1}
\beamer@sectionintoc {2}{Examples}{14}{0}{2}
\beamer@sectionintoc {3}{Basics}{22}{0}{3}
\beamer@sectionintoc {4}{Toy Example}{26}{0}{4}
